{
    "fluentMethods": true,
    "relationships": [],
    "fields": [
        {
            "fieldName": "code",
            "fieldType": "String",
            "fieldValidateRules": [
                "required",
                "pattern"
            ],
            "fieldValidateRulesPattern": "(^\\+7\\(\\d{3}\\)\\s\\d{3}-\\d{4})"
        },
        {
            "fieldName": "type",
            "fieldType": "ReportType",
            "fieldValues": "FULL, PART, EMPTY"
        }
    ],
    "changelogDate": "20171214090425",
    "dto": "no",
    "service": "serviceClass",
    "entityTableName": "report",
    "jpaMetamodelFiltering": true,
    "pagination": "pagination"
}
