{
    "fluentMethods": true,
    "relationships": [
        {
            "relationshipType": "many-to-one",
            "relationshipName": "routeBranch",
            "otherEntityName": "routeBranch",
            "otherEntityField": "id"
        }
    ],
    "fields": [
        {
            "fieldName": "createDateTime",
            "fieldType": "ZonedDateTime"
        },
        {
            "fieldName": "flagDeleted",
            "fieldType": "Boolean"
        },
        {
            "fieldName": "status",
            "fieldType": "RouteBranchStatus",
            "fieldValues": "DRAFT,IN_PROCESS,DELIVERING,DELIVERED,FAILED,SKIPPED",
            "fieldValidateRules": [
                "required"
            ]
        }
    ],
    "changelogDate": "20171208201349",
    "entityTableName": "route_branch_status_history",
    "dto": "no",
    "pagination": "no",
    "service": "serviceImpl",
    "jpaMetamodelFiltering": false
}